1,Hamster,hamtaro,male,5,0.25,,healthy
2,Lion,nala,female,150,130,pregnant,healthy
3,Cat,tom,male,46,4.5,,healthy
4,Eagle,igel,male,100,9,,healthy
5,Parrot,woody,male,45,1,laying eggs,healthy
6,Snake,lala,female,500,10,tame,healthy
7,Whale,lulu,female,230,120,,healthy
8,Whale,baba,male,260,100,,healthy
9,Whale,mumu,male,250,90,,healthy
10,Snake,uul,male,570,12,wild,healthy
11,Eagle,el,male,98,7,,not healthy
12,Cat,meong,male,50,4,,healthy
13,Cat,mew,female,40,3.6,,not healthy
14,Hamster,ribbon,female,13,0.45,,healthy
15,Hamster,panda,male,3,0.2,,healthy
16,Lion,simba,male,250,190,,healthy